module gitlab.com/mayachain/midgard

go 1.18

// Note, keep tendermint in sync with thornode tendermint.

require (
	github.com/DataDog/zstd v1.4.5
	github.com/deepmap/oapi-codegen v1.6.1
	github.com/getkin/kin-openapi v0.53.0
	github.com/gobwas/ws v1.0.4
	github.com/jackc/pgx/v4 v4.10.1
	github.com/jarcoal/httpmock v1.0.7
	github.com/julienschmidt/httprouter v1.3.0
	github.com/kelseyhightower/envconfig v1.4.0
	github.com/lib/pq v1.3.0
	github.com/pascaldekloe/metrics v1.2.0
	github.com/pkg/errors v0.9.1
	github.com/rs/zerolog v1.15.0
	github.com/sirupsen/logrus v1.8.1
	github.com/stretchr/testify v1.7.0
	github.com/tendermint/tendermint v0.34.14
	golang.org/x/sys v0.0.0-20211019181941-9d821ace8654
	gopkg.in/yaml.v3 v3.0.1
)

require (
	github.com/beorn7/perks v1.0.1 // indirect
	github.com/btcsuite/btcd v0.21.0-beta // indirect
	github.com/cespare/xxhash/v2 v2.1.1 // indirect
	github.com/cosmos/go-bip39 v1.0.0 // indirect
	github.com/davecgh/go-spew v1.1.1 // indirect
	github.com/dgraph-io/ristretto v0.0.3 // indirect
	github.com/dgryski/go-farm v0.0.0-20200201041132-a6ae2369ad13 // indirect
	github.com/ghodss/yaml v1.0.0 // indirect
	github.com/go-kit/kit v0.10.0 // indirect
	github.com/go-logfmt/logfmt v0.5.0 // indirect
	github.com/go-openapi/jsonpointer v0.19.5 // indirect
	github.com/go-openapi/swag v0.19.5 // indirect
	github.com/gobwas/httphead v0.1.0 // indirect
	github.com/gobwas/pool v0.2.1 // indirect
	github.com/gogo/protobuf v1.3.2 // indirect
	github.com/golang/protobuf v1.5.0 // indirect
	github.com/golang/snappy v0.0.2 // indirect
	github.com/gorilla/websocket v1.4.2 // indirect
	github.com/gtank/merlin v0.1.1 // indirect
	github.com/jackc/chunkreader/v2 v2.0.1 // indirect
	github.com/jackc/pgconn v1.8.0 // indirect
	github.com/jackc/pgio v1.0.0 // indirect
	github.com/jackc/pgpassfile v1.0.0 // indirect
	github.com/jackc/pgproto3/v2 v2.3.0 // indirect
	github.com/jackc/pgservicefile v0.0.0-20200714003250-2b9c44734f2b // indirect
	github.com/jackc/pgtype v1.6.2 // indirect
	github.com/labstack/echo/v4 v4.2.1 // indirect
	github.com/labstack/gommon v0.3.0 // indirect
	github.com/libp2p/go-buffer-pool v0.0.2 // indirect
	github.com/mailru/easyjson v0.0.0-20190626092158-b2ccc519800e // indirect
	github.com/mattn/go-colorable v0.1.8 // indirect
	github.com/mattn/go-isatty v0.0.12 // indirect
	github.com/matttproud/golang_protobuf_extensions v1.0.1 // indirect
	github.com/mimoo/StrobeGo v0.0.0-20181016162300-f8f6d4d2b643 // indirect
	github.com/petermattis/goid v0.0.0-20180202154549-b0b1615b78e5 // indirect
	github.com/pkg/errors v0.9.1 // indirect
	github.com/pmezard/go-difflib v1.0.0 // indirect
	github.com/prometheus/client_golang v1.8.0 // indirect
	github.com/prometheus/client_model v0.2.0 // indirect
	github.com/prometheus/common v0.15.0 // indirect
	github.com/prometheus/procfs v0.2.0 // indirect
	github.com/rcrowley/go-metrics v0.0.0-20200313005456-10cdbea86bc0 // indirect
	github.com/rs/xid v1.2.1 // indirect
	github.com/sasha-s/go-deadlock v0.2.1-0.20190427202633-1595213edefa // indirect
	github.com/valyala/bytebufferpool v1.0.0 // indirect
	github.com/valyala/fasttemplate v1.2.1 // indirect
	github.com/zenazn/goji v0.9.0 // indirect
	golang.org/x/crypto v0.0.0-20210921155107-089bfa567519 // indirect
	golang.org/x/mod v0.6.0-dev.0.20220106191415-9b9b3d81d5e3 // indirect
	golang.org/x/net v0.0.0-20211015210444-4f30a5c0130f // indirect
	golang.org/x/text v0.3.7 // indirect
	golang.org/x/tools v0.1.10 // indirect
	golang.org/x/xerrors v0.0.0-20200804184101-5ec99f83aff1 // indirect
	google.golang.org/genproto v0.0.0-20201214200347-8c77b98c765d // indirect
	google.golang.org/grpc v1.37.0 // indirect
	google.golang.org/protobuf v1.26.0 // indirect
	gopkg.in/yaml.v2 v2.4.0 // indirect
)
